…
``` r
#Each row is a ZIP code and so counting the COUNTY.NAME will show how many ZIP is in each county in each State.
usage_ZIP_2020 %>% group_by(ST) %>% count(COUNTY.NAME)
```

    ## # A tibble: 3,132 x 3
    ## # Groups:   ST [51]
    ##    ST    COUNTY.NAME                      n
    ##    <chr> <chr>                        <int>
    ##  1 AK    Aleutians East Borough           5
    ##  2 AK    Aleutians West Census Area       7
    ##  3 AK    Anchorage Municipality          16
    ##  4 AK    Bethel Census Area              26
    ##  5 AK    Bristol Bay Borough              3
    ##  6 AK    Denali Borough                   5
    ##  7 AK    Dillingham Census Area           7
    ##  8 AK    Fairbanks North Star Borough     8
    ##  9 AK    Haines Borough                   1
    ## 10 AK    Hoonah-Angoon Census Area        6
    ## # ... with 3,122 more rows
…
