…
## List of state code and abbreviation

``` r
list <-read.delim("./Utility/StateCodeList.txt", header = T, sep = " ")
list <- list[1:3]
list$FIPS <- as.numeric(list$FIPS)
```

Left-Join

``` r
left_join(fixed_2020_Q, list, by = c("state_code" = "FIPS"))
```

    ## # A tibble: 12,896 x 11
    ## # Groups:   QT, state_code, geoid [12,896]
    ##    QT    state_code geoid name     avg_d_Mbps avg_u_Mbps avg_latency tests_count
    ##    <chr>      <dbl> <int> <chr>         <dbl>      <dbl>       <dbl>       <int>
    ##  1 1              1  1001 Autauga       111.       40.5         47.4        4447
    ##  2 1              1  1003 Baldwin        77.7      30.6         74.1       21202
    ##  3 1              1  1005 Barbour        66.9       9.13        87.7         467
    ##  4 1              1  1007 Bibb           42.3      28.7         76.7         749
    ##  5 1              1  1009 Blount         60.9      21.4         47.9        4501
    ##  6 1              1  1011 Bullock        16.2       6.04        63.8         174
    ##  7 1              1  1013 Butler         49.5       9.81        51.0         446
    ##  8 1              1  1015 Calhoun       107.       22.8         42.7        5191
    ##  9 1              1  1017 Chambers       96.2      13.2         57.3        1443
    ## 10 1              1  1019 Cherokee       30.8       6.36        88.4        1568
    ## # ... with 12,886 more rows, and 3 more variables: devices_count <int>,
    ## #   State <chr>, Abbr <chr>
…
